{
  "executionRoleArn": "arn:aws:iam::132201495663:role/ecsTaskExecutionRole",
  "family": "nodejs-manejo-agricola-service",
  "networkMode": "awsvpc",
  "containerDefinitions": [
    {
      "name": "node-app",
      "image": "132201495663.dkr.ecr.us-east-1.amazonaws.com/nodejs-manejo-agricola-service",
      "portMappings": [
        {
          "containerPort": 3000,
          "hostPort": 3000,
          "protocol": "tcp"
        }
      ],
      "essential": true
    }
  ],
  "requiresCompatibilities": [
    "FARGATE"
  ],
  "cpu": "256",
  "memory": "512"
}